{
    "$schema": "https://docs.renovatebot.com/renovate-schema.json",
    "extends": [
        "config:best-practices",
        ":semanticCommits",
        ":semanticCommitTypeAll(CI)",

        // allows to use comments starting with
        // "# renovate: " to update _VERSION
        // environment variables in GitHub Action files.
        "customManagers:githubActionsVersions",
        // allows to use comments starting with
        // "# renovate: " to update _VERSION
        // ENV or ARG in a Dockerfile.
        "customManagers:dockerfileVersions",

        // when a dependency is really out of date, this will prevent to skip directly to the latest version.
        ":separateMultipleMajorReleases",
    ]
}
